PROJECT SURVEY: Gender identity change in civil documents
…
This stacked bar chart illustrates the distribution of opinions regarding gender identity change in civil documents across various countries, categorizing responses as “Yes” (for), “No” (against), and “NA” (not available). The visualization allows for cross-country comparisons, highlighting variations in support levels, opposition, and the extent of missing opinion data. Notably, Spain, the Netherlands, Malta or France display very strong support for gender identity change. On the other hand, Hungary, Romania or Slovakia show a bigger percentage of “no”. Analyzing these trends could reveal potential correlations with regional dynamics or socioeconomic factors influencing public sentiment on this issue.

Plot for the distribution of the dependent variable across European countries

# Filter for "Yes" responses and select the relevant columns
yes_percentages <- qc19_percentages %>%
  filter(qc19_label == "Yes") %>%
  select(isocntry, percentage)

# Now yes_percentages contains the country and the percentage of "Yes" responses
print(yes_percentages)

# A tibble: 28 × 2
# Groups:   isocntry [28]
   isocntry percentage
   <chr>         <dbl>
 1 AT             57.4
 2 BE             71.8
 3 BG             11.9
 4 CY             42.7
 5 CZ             40.8
 6 DE             68.6
 7 DK             73.8
 8 EE             49.1
 9 ES             82.8
10 FI             62.5
# ℹ 18 more rows
…
